{
	"$id": "<TBD>",
	"$schema": "https://json-schema.org/draft/2020-12/schema",
	"description": "Ein Buch",
	"type": "object",
	"properties": {
		"_id": { 
            "type": "ObjectId",
            "description": "Eindeutige Id des Objekts"
        },
        "titel": {
            "type": "string", 
            "description": "Der Titel des Buches"
        },
        "autor": {
            "type": "object", 
            "description": "Der Author",
            "properties":{
                "vorname": {
                    "type": "string",
                    "description": "Der Vorname des Autors"
                },
                "nachname": {
                    "type": "string",
                    "description": "Der Nachname des Autors"
                }
            }
        },
        "seiten":{
            "type": "array",
            "description": "Die Seiten des Buches",
            "items": { "$ref": "#/$defs/seite"}
        }
    },
    "$defs": {
		"seite":{
			"type": "object",
			"properties": {
				"_id": { 
                    "type": "ObjectId",
                    "description": "Eindeutige Id des Objekts"
                },
				"seitennummer": { 
                    "type": "int",
                    "description": "Die Seitennummer der aktuellen Seite"
                },
				"inhalt": {
					"type": "string",
                    "description": "Der Inhalt der Seite."
				}
			}
		}
	}
}